<svg width="1440" height="222" viewBox="0 0 1440 222" fill="none" xmlns="http://www.w3.org/2000/svg">
<path opacity="0.05" d="M26.1928 184.515C26.1928 174.362 22.5972 166.537 15.4061 161.038C8.32071 155.538 -4.52816 149.987 -23.1405 144.382C-41.7528 138.777 -56.5581 132.537 -67.5563 125.664C-88.601 112.445 -99.1233 95.207 -99.1233 73.9509C-99.1233 55.3385 -91.562 40.0045 -76.4395 27.9488C-61.2112 15.893 -41.4885 9.86518 -17.2713 9.86518C-1.19697 9.86518 13.1324 12.8262 25.7169 18.7483C38.3014 24.6705 48.1892 33.1306 55.3803 44.1288C62.5715 55.0213 66.167 67.1299 66.167 80.4546H26.1928C26.1928 68.3989 22.3857 58.987 14.7716 52.2188C7.26319 45.345 -3.52351 41.908 -17.5885 41.908C-30.7018 41.908 -40.9068 44.7104 -48.2037 50.3153C-55.3948 55.9202 -58.9904 63.7458 -58.9904 73.7922C-58.9904 82.2524 -55.0776 89.3378 -47.2519 95.0484C-39.4263 100.653 -26.5246 106.152 -8.54673 111.546C9.4311 116.833 23.8662 122.914 34.7587 129.788C45.6511 136.556 53.6354 144.382 58.7115 153.265C63.7876 162.042 66.3257 172.353 66.3257 184.197C66.3257 203.444 58.923 218.778 44.1177 230.199C29.4182 241.515 9.4311 247.173 -15.8436 247.173C-32.5524 247.173 -47.9393 244.106 -62.0043 237.972C-75.9636 231.733 -86.8561 223.167 -94.6817 212.274C-102.402 201.382 -106.262 188.692 -106.262 174.204H-66.1287C-66.1287 187.317 -61.7928 197.469 -53.1212 204.66C-44.4495 211.851 -32.0237 215.447 -15.8436 215.447C-1.88436 215.447 8.58509 212.645 15.5647 207.04C22.6501 201.329 26.1928 193.821 26.1928 184.515ZM146.115 30.6454V72.3646H176.413V100.918H146.115V196.729C146.115 203.285 147.385 208.044 149.923 211.005C152.566 213.861 157.219 215.288 163.882 215.288C168.323 215.288 172.818 214.76 177.365 213.702V243.524C168.588 245.956 160.128 247.173 151.985 247.173C122.374 247.173 107.569 230.834 107.569 198.157V100.918H79.3331V72.3646H107.569V30.6454H146.115ZM295.86 107.58C290.784 106.734 285.549 106.311 280.156 106.311C262.496 106.311 250.598 113.079 244.465 126.615V244H205.918V72.3646H242.72L243.672 91.5586C252.978 76.6475 265.88 69.192 282.377 69.192C287.876 69.192 292.423 69.9323 296.019 71.4128L295.86 107.58ZM418.004 244C416.312 240.722 414.831 235.381 413.562 227.979C401.295 240.775 386.278 247.173 368.512 247.173C351.274 247.173 337.209 242.255 326.317 232.42C315.424 222.585 309.978 210.424 309.978 195.936C309.978 177.641 316.746 163.629 330.283 153.899C343.925 144.064 363.383 139.147 388.658 139.147H412.293V127.884C412.293 119.001 409.808 111.916 404.838 106.628C399.867 101.235 392.306 98.5382 382.154 98.5382C373.376 98.5382 366.185 100.759 360.58 105.201C354.976 109.536 352.173 115.088 352.173 121.856H313.627C313.627 112.445 316.746 103.667 322.986 95.5243C329.225 87.2756 337.685 80.8247 348.366 76.1717C359.153 71.5186 371.156 69.192 384.375 69.192C404.468 69.192 420.489 74.2681 432.439 84.4203C444.389 94.4667 450.522 108.638 450.84 126.933V204.343C450.84 219.783 453.008 232.103 457.343 241.303V244H418.004ZM375.65 216.24C383.264 216.24 390.403 214.389 397.065 210.688C403.833 206.987 408.909 202.016 412.293 195.777V163.417H391.513C377.236 163.417 366.503 165.902 359.311 170.873C352.12 175.843 348.525 182.875 348.525 191.97C348.525 199.373 350.957 205.295 355.822 209.736C360.792 214.072 367.401 216.24 375.65 216.24ZM641.986 190.86L669.27 72.3646H706.865L660.07 244H628.344L591.543 126.139L555.376 244H523.65L476.696 72.3646H514.291L542.051 189.591L577.266 72.3646H606.295L641.986 190.86ZM883.259 159.927C883.259 186.577 877.284 207.78 865.335 223.537C853.49 239.294 837.152 247.173 816.318 247.173C796.226 247.173 780.574 239.929 769.365 225.441L767.461 244H732.563V0.347504H771.11V88.8619C782.213 75.7486 797.177 69.192 816.001 69.192C836.94 69.192 853.385 76.9648 865.335 92.5103C877.284 108.056 883.259 129.788 883.259 157.706V159.927ZM844.713 156.596C844.713 137.984 841.435 124.024 834.878 114.718C828.321 105.412 818.804 100.759 806.325 100.759C789.616 100.759 777.878 108.056 771.11 122.65V193.398C777.983 208.309 789.828 215.764 806.642 215.764C818.698 215.764 828.004 211.27 834.561 202.281C841.117 193.292 844.501 179.703 844.713 161.513V156.596ZM991.285 247.173C966.856 247.173 947.028 239.506 931.8 224.172C916.677 208.732 909.116 188.216 909.116 162.624V157.865C909.116 140.733 912.394 125.452 918.951 112.022C925.613 98.4853 934.919 87.963 946.869 80.4546C958.819 72.9462 972.144 69.192 986.844 69.192C1010.21 69.192 1028.25 76.6475 1040.94 91.5586C1053.73 106.47 1060.13 127.567 1060.13 154.851V170.397H947.98C949.143 184.567 953.849 195.777 962.098 204.026C970.452 212.274 980.921 216.399 993.506 216.399C1011.17 216.399 1025.55 209.26 1036.65 194.984L1057.43 214.812C1050.56 225.07 1041.36 233.055 1029.83 238.765C1018.41 244.37 1005.56 247.173 991.285 247.173ZM986.685 100.124C976.11 100.124 967.544 103.826 960.987 111.228C954.536 118.631 950.412 128.942 948.614 142.161H1022.06V139.306C1021.21 126.404 1017.78 116.675 1011.75 110.118C1005.72 103.456 997.366 100.124 986.685 100.124ZM1180.05 107.58C1174.98 106.734 1169.74 106.311 1164.35 106.311C1146.69 106.311 1134.79 113.079 1128.66 126.615V244H1090.11V72.3646H1126.91L1127.86 91.5586C1137.17 76.6475 1150.07 69.192 1166.57 69.192C1172.07 69.192 1176.62 69.9323 1180.21 71.4128L1180.05 107.58ZM1294.26 107.58C1289.19 106.734 1283.95 106.311 1278.56 106.311C1260.9 106.311 1249 113.079 1242.87 126.615V244H1204.32V72.3646H1241.12L1242.08 91.5586C1251.38 76.6475 1264.28 69.192 1280.78 69.192C1286.28 69.192 1290.83 69.9323 1294.42 71.4128L1294.26 107.58ZM1381.51 188.797L1416.41 72.3646H1457.49L1389.28 270.015C1378.81 298.885 1361.05 313.32 1335.98 313.32C1330.38 313.32 1324.19 312.369 1317.42 310.465V280.643L1324.72 281.119C1334.45 281.119 1341.75 279.321 1346.61 275.726C1351.58 272.236 1355.49 266.314 1358.35 257.959L1363.9 243.207L1303.62 72.3646H1345.18L1381.51 188.797Z" fill="#FE707B"/>
</svg>
